softmax_sim/softmax_sim.sim/sim_1/behav/xsim/dump.vcd
$date
   Thu Mar 19 16:24:48 2026
$end

$version
  2025.2
$end

$timescale
  1ps
$end

$scope module softmax_unit_tb $end
$var reg 1 ! clk $end
$var reg 1 " rst_n $end
$var reg 1 # in_valid $end
$var reg 1 $ in_first $end
$var reg 16 % in_data [15:0] $end
$var reg 1 & out_valid $end
$var reg 8 ' out_data [7:0] $end
$var reg 1 ( busy $end
$var reg 32 ) out_cnt [31:0] $end
$scope module dut $end
$var wire 1 * clk $end
$var wire 1 + rst_n $end
$var wire 1 , in_valid $end
$var wire 1 - in_first $end
$var wire 16 . in_data [15:0] $end
$var reg 1 & out_valid $end
$var reg 8 ' out_data [7:0] $end
$var reg 1 ( busy $end
$var reg 3 / state $end
$var reg 3 0 next_state $end
$var reg 4 1 cnt [3:0] $end
$var reg 16 2 running_max [15:0] $end
$var reg 12 3 sigma [11:0] $end
$var reg 16 4 shifted_val [15:0] $end
$var reg 16 5 neg_shifted [15:0] $end
$var reg 8 6 lut_addr_exp [7:0] $end
$var reg 8 7 ex_val [7:0] $end
$var reg 4 8 sigma_idx [3:0] $end
$var reg 4 9 ex_idx [3:0] $end
$upscope $end
$scope task send_row $end
$upscope $end
$scope function to_q8_8 $end
$upscope $end
$scope task print_summary $end
$upscope $end
$scope task print_all $end
$upscope $end
$scope task test_uniform $end
$var reg 32 : i [31:0] $end
$var reg 32 ; pass [31:0] $end
$upscope $end
$scope task test_one_hot $end
$var reg 32 < i [31:0] $end
$upscope $end
$scope task test_back_to_back $end
$var reg 32 = i [31:0] $end
$upscope $end
$upscope $end
$enddefinitions $end

#0
$dumpvars
0!
0"
0#
0$
b0 %
0&
b0 '
0(
b0 )
0*
0+
0,
0-
b0 .
b0 /
b0 0
b0 1
b1111111111111111 2
b0 3
bx 4
bx 5
bx 6
bx 7
b0 8
bx 9
b0 :
b0 ;
b0 <
b0 =
$end

#5000
1!
1*

#10000
0!
0*

#15000
1!
1*

#20000
0!
1"
0*
1+

#25000
1!
1*

#30000
0!
0*

#35000
1!
1*

#40000
0!
0*
b10000 :

#45000
1!
1#
1$
1*
1,
1-
b1 0
b0 2
b0 4
b0 5
b0 6
b11111111 7

#50000
0!
0*

#55000
1!
0$
1(
1*
0-
b1 /
b1 0

#60000
0!
0*

#65000
1!
1*
b1 1
bx 4
bx 5
bx 6
bx 7

#70000
0!
0*

#75000
1!
1*
b10 1

#80000
0!
0*

#85000
1!
1*
b11 1

#90000
0!
0*

#95000
1!
1*
b100 1

#100000
0!
0*

#105000
1!
1*
b101 1

#110000
0!
0*

#115000
1!
1*
b110 1

#120000
0!
0*

#125000
1!
1*
b111 1

#130000
0!
0*

#135000
1!
1*
b1000 1

#140000
0!
0*

#145000
1!
1*
b1001 1

#150000
0!
0*

#155000
1!
1*
b1010 1

#160000
0!
0*

#165000
1!
1*
b1011 1

#170000
0!
0*

#175000
1!
1*
b1100 1

#180000
0!
0*

#185000
1!
1*
b1101 1

#190000
0!
0*

#195000
1!
1*
b10 0
b1110 1

#200000
0!
0*

#205000
1!
0#
1*
0,
b10 /
b10 0

#210000
0!
0*

#215000
1!
1*
b11 0
b1111 1

#220000
0!
0*

#225000
1!
1*
b11 /
b0 1
b0 4
b0 5
b0 6
b11111111 7

#230000
0!
0*

#235000
1!
1*
b1 1
bx 3
bx 8

#240000
0!
0*

#245000
1!
1*
b10 1

#250000
0!
0*

#255000
1!
1*
b11 1

#260000
0!
0*

#265000
1!
1*
b100 1

#270000
0!
0*

#275000
1!
1*
b101 1

#280000
0!
0*

#285000
1!
1*
b110 1

#290000
0!
0*

#295000
1!
1*
b111 1

#300000
0!
0*

#305000
1!
1*
b1000 1

#310000
0!
0*

#315000
1!
1*
b1001 1

#320000
0!
0*

#325000
1!
1*
b1010 1

#330000
0!
0*

#335000
1!
1*
b1011 1

#340000
0!
0*

#345000
1!
1*
b1100 1

#350000
0!
0*

#355000
1!
1*
b1101 1

#360000
0!
0*

#365000
1!
1*
b1110 1
bx 4
bx 5
bx 6
bx 7

#370000
0!
0*

#375000
1!
1*
b100 0
b1111 1

#380000
0!
0*

#385000
1!
1*
b100 /
b0 1
b0 4
b0 5
b0 6
b11111111 7

#390000
0!
0*

#395000
1!
1&
bx '
1*
b1 1

#400000
0!
0*

#405000
1!
b1 )
1*
b10 1

#410000
0!
0*

#415000
1!
b10 )
1*
b11 1

#420000
0!
0*

#425000
1!
b11 )
1*
b100 1

#430000
0!
0*

#435000
1!
b100 )
1*
b101 1

#440000
0!
0*

#445000
1!
b101 )
1*
b110 1

#450000
0!
0*

#455000
1!
b110 )
1*
b111 1

#460000
0!
0*

#465000
1!
b111 )
1*
b1000 1

#470000
0!
0*

#475000
1!
b1000 )
1*
b1001 1

#480000
0!
0*

#485000
1!
b1001 )
1*
b1010 1

#490000
0!
0*

#495000
1!
b1010 )
1*
b1011 1

#500000
0!
0*

#505000
1!
b1011 )
1*
b1100 1

#510000
0!
0*

#515000
1!
b1100 )
1*
b1101 1

#520000
0!
0*

#525000
1!
b1101 )
1*
b1110 1
bx 4
bx 5
bx 6
bx 7

#530000
0!
0*

#535000
1!
b1110 )
1*
b0 0
b1111 1

#540000
0!
0*

#545000
1!
0(
b1111 )
1*
b0 /
b0 1
b0 4
b0 5
b0 6
b11111111 7

#550000
0!
0*

#555000
1!
0&
b10000 )
1*

#560000
0!
0*

#565000
1!
b0 )
1*
b10000 :
b1 ;
b10000 <

#570000
0!
0*

#575000
1!
1#
1$
b1111110000000000 %
1*
1,
1-
b1111110000000000 .
b1 0
b1111110000000000 2

#580000
0!
0*

#585000
1!
0$
1(
1*
0-
b1 /
b1 0

#590000
0!
0*

#595000
1!
1*
b1 1
b10000000000 4
b1111110000000000 5
b11111111 6
b1011101 7

#600000
0!
0*

#605000
1!
1*
b10 1

#610000
0!
0*

#615000
1!
1*
b11 1

#620000
0!
0*

#625000
1!
b10000000000 %
1*
b10000000000 .
b100 1
b10000000000 2
b1111110000000000 4
b10000000000 5

#630000
0!
0*

#635000
1!
b1111110000000000 %
1*
b1111110000000000 .
b101 1

#640000
0!
0*

#645000
1!
1*
b110 1

#650000
0!
0*

#655000
1!
1*
b111 1

#660000
0!
0*

#665000
1!
1*
b1000 1

#670000
0!
0*

#675000
1!
1*
b1001 1

#680000
0!
0*

#685000
1!
1*
b1010 1

#690000
0!
0*

#695000
1!
1*
b1011 1

#700000
0!
0*

#705000
1!
1*
b1100 1

#710000
0!
0*

#715000
1!
1*
b1101 1

#720000
0!
0*

#725000
1!
1*
b10 0
b1110 1
bx 4
bx 5
bx 6
bx 7

#730000
0!
0*

#735000
1!
0#
1*
0,
b10 /
b10 0

#740000
0!
0*

#745000
1!
1*
b11 0
b1111 1

#750000
0!
0*

#755000
1!
1*
b11 /
b0 1
b1111100000000000 4
b100000000000 5
b11111111 6
b1011101 7

#760000
0!
0*

#765000
1!
1*
b1 1

#770000
0!
0*

#775000
1!
1*
b10 1

#780000
0!
0*

#785000
1!
1*
b11 1
b0 4
b0 5
b0 6
b11111111 7

#790000
0!
0*

#795000
1!
1*
b100 1
b1111100000000000 4
b100000000000 5
b11111111 6
b1011101 7

#800000
0!
0*

#805000
1!
1*
b101 1

#810000
0!
0*

#815000
1!
1*
b110 1

#820000
0!
0*

#825000
1!
1*
b111 1

#830000
0!
0*

#835000
1!
1*
b1000 1

#840000
0!
0*

#845000
1!
1*
b1001 1

#850000
0!
0*

#855000
1!
1*
b1010 1

#860000
0!
0*

#865000
1!
1*
b1011 1

#870000
0!
0*

#875000
1!
1*
b1100 1

#880000
0!
0*

#885000
1!
1*
b1101 1

#890000
0!
0*

#895000
1!
1*
b1110 1
bx 4
bx 5
bx 6
bx 7

#900000
0!
0*

#905000
1!
1*
b100 0
b1111 1

#910000
0!
0*

#915000
1!
1*
b100 /
b0 1
b1111100000000000 4
b100000000000 5
b11111111 6
b1011101 7

#920000
0!
0*

#925000
1!
1&
1*
b1 1

#930000
0!
0*

#935000
1!
b1 )
1*
b10 1

#940000
0!
0*

#945000
1!
b10 )
1*
b11 1
b0 4
b0 5
b0 6
b11111111 7

#950000
0!
0*

#955000
1!
b11 )
1*
b100 1
b1111100000000000 4
b100000000000 5
b11111111 6
b1011101 7

#960000
0!
0*

#965000
1!
b100 )
1*
b101 1

#970000
0!
0*

#975000
1!
b101 )
1*
b110 1

#980000
0!
0*

#985000
1!
b110 )
1*
b111 1

#990000
0!
0*

#995000
1!
b111 )
1*
b1000 1

