softmax/sim/softmax_sim.vcd
$date
   Thu Mar 19 20:48:27 2026
$end

$version
  2025.2
  $dumpfile ("C:/Users/IsaiahK/Documents/School/FPGA/transformer/softmax/sim/softmax_sim.vcd") 
$end

$timescale
  1ps
$end

$scope module softmax_unit_tb $end
$var reg 1 ! clk $end
$var reg 1 " rst_n $end
$var reg 1 # in_valid $end
$var reg 1 $ in_first $end
$var reg 16 % in_data [15:0] $end
$var reg 1 & out_valid $end
$var reg 8 ' out_data [7:0] $end
$var reg 1 ( busy $end
$var reg 32 ) capture_idx [31:0] $end
$scope module dut $end
$var wire 1 * clk $end
$var wire 1 + rst_n $end
$var wire 1 , in_valid $end
$var wire 1 - in_first $end
$var wire 16 . in_data [15:0] $end
$var reg 1 & out_valid $end
$var reg 8 ' out_data [7:0] $end
$var reg 1 ( busy $end
$var reg 4 / cnt [3:0] $end
$var reg 16 0 running_max [15:0] $end
$var reg 12 1 sigma [11:0] $end
$var reg 1 2 sigma_clear $end
$var reg 16 3 shifted_val [15:0] $end
$var reg 16 4 neg_shifted [15:0] $end
$var reg 8 5 lut_addr_exp [7:0] $end
$var reg 4 6 sigma_idx [3:0] $end
$var reg 4 7 ex_idx [3:0] $end
$var reg 8 8 flat_idx [7:0] $end
$var reg 3 9 state $end
$var reg 3 : next_state $end
$upscope $end
$scope task send_row $end
$upscope $end
$scope function to_q8_8 $end
$upscope $end
$scope task print_summary $end
$upscope $end
$scope task print_all $end
$upscope $end
$scope task test_uniform $end
$var reg 32 ; i [31:0] $end
$var reg 32 < pass [31:0] $end
$upscope $end
$scope task test_one_hot $end
$var reg 32 = i [31:0] $end
$upscope $end
$scope task test_back_to_back $end
$var reg 32 > i [31:0] $end
$upscope $end
$upscope $end
$enddefinitions $end

#0
$dumpvars
0!
0"
0#
0$
b0 %
0&
b0 '
0(
b0 )
0*
0+
0,
0-
b0 .
b0 /
b1000000000000000 0
b0 1
02
bx 3
bx 4
bx 5
b0 6
bx 7
b0xxxx 8
b0 9
b0 :
b0 ;
b0 <
b0 =
b0 >
$end

#5000
1!
1*

#10000
0!
0*

#15000
1!
1*

#20000
0!
0*

#25000
1!
1*

#30000
0!
0*

#35000
1!
1*

#40000
0!
1"
0*
1+

#45000
1!
1*

#50000
0!
0*

#55000
1!
1*

#60000
0!
0*
b10000 ;

#65000
1!
1#
1$
1*
1,
1-
b0 0
b0 3
b0 4
b0 5
b1 :

#70000
0!
0*

#75000
1!
0$
1(
1*
0-
b1 9
b1 :

#80000
0!
0*

#85000
1!
1*
b1 /

#90000
0!
0*

#95000
1!
1*
b10 /

#100000
0!
0*

#105000
1!
1*
b11 /

#110000
0!
0*

#115000
1!
1*
b100 /

#120000
0!
0*

#125000
1!
1*
b101 /

#130000
0!
0*

#135000
1!
1*
b110 /

#140000
0!
0*

#145000
1!
1*
b111 /

#150000
0!
0*

#155000
1!
1*
b1000 /

#160000
0!
0*

#165000
1!
1*
b1001 /

#170000
0!
0*

#175000
1!
1*
b1010 /

#180000
0!
0*

#185000
1!
1*
b1011 /

#190000
0!
0*

#195000
1!
1*
b1100 /

#200000
0!
0*

#205000
1!
1*
b1101 /

#210000
0!
0*

#215000
1!
1*
b1110 /
b10 :

#220000
0!
0*

#225000
1!
0#
1*
0,
b0 /
b10 9
b10 :

#230000
0!
0*

#235000
1!
1*
b1 /

#240000
0!
0*

#245000
1!
1*
b10 /

#250000
0!
0*

#255000
1!
1*
b11 /

#260000
0!
0*

#265000
1!
1*
b100 /

#270000
0!
0*

#275000
1!
1*
b101 /

#280000
0!
0*

#285000
1!
1*
b110 /

#290000
0!
0*

#295000
1!
1*
b111 /

#300000
0!
0*

#305000
1!
1*
b1000 /

#310000
0!
0*

#315000
1!
1*
b1001 /

#320000
0!
0*

#325000
1!
1*
b1010 /

#330000
0!
0*

#335000
1!
1*
b1011 /

#340000
0!
0*

#345000
1!
1*
b1100 /

#350000
0!
0*

#355000
1!
1*
b1101 /

#360000
0!
0*

#365000
1!
1*
b1110 /

#370000
0!
0*

#375000
1!
1*
b1111 /
bx 3
bx 4
bx 5
b11 :

#380000
0!
0*

#385000
1!
1*
b0 /
12
b0 3
b0 4
b0 5
b1111 7
b1111 8
b11 9

#390000
0!
0*

#395000
1!
1*
b1 /
02

#400000
0!
0*

#405000
1!
1*
b10 /
b11111111 1

#410000
0!
0*

#415000
1!
1*
b11 /
b111111110 1
b1 6
b11111 8

#420000
0!
0*

#425000
1!
1*
b100 /
b1011111101 1
b10 6
b101111 8

#430000
0!
0*

#435000
1!
1*
b101 /
b1111111100 1
b11 6
b111111 8

#440000
0!
0*

#445000
1!
1*
b110 /
b10011111011 1
b100 6
b1001111 8

#450000
0!
0*

#455000
1!
1*
b111 /
b10111111010 1
b101 6
b1011111 8

#460000
0!
0*

#465000
1!
1*
b1000 /
b11011111001 1
b110 6
b1101111 8

#470000
0!
0*

#475000
1!
1*
b1001 /
b11111111000 1
b111 6
b1111111 8

#480000
0!
0*

#485000
1!
1*
b1010 /
b100011110111 1
b1000 6
b10001111 8

#490000
0!
0*

#495000
1!
1*
b1011 /
b100111110110 1
b1001 6
b10011111 8

#500000
0!
0*

#505000
1!
1*
b1100 /
b101011110101 1
b1010 6
b10101111 8

#510000
0!
0*

#515000
1!
1*
b1101 /
b101111110100 1
b1011 6
b10111111 8

#520000
0!
0*

#525000
1!
1*
b1110 /
b110011110011 1
b1100 6
b11001111 8

#530000
0!
0*

#535000
1!
1*
b1111 /
b110111110010 1
bx 3
bx 4
bx 5
b1101 6
bx 7
b1101xxxx 8
b100 :

#540000
0!
0*

#545000
1!
1*
b0 /
bx 1
b0 3
b0 4
b0 5
bx 6
b1111 7
bx1111 8
b100 9

#550000
0!
0*

#555000
1!
1&
bx '
1*
b1 /

#560000
0!
0*

#565000
1!
b1 )
1*
b10 /

#570000
0!
0*

#575000
1!
b10 )
1*
b11 /

#580000
0!
0*

#585000
1!
b11 )
1*
b100 /

#590000
0!
0*

#595000
1!
b100 )
1*
b101 /

#600000
0!
0*

#605000
1!
b101 )
1*
b110 /

#610000
0!
0*

#615000
1!
b110 )
1*
b111 /

#620000
0!
0*

#625000
1!
b111 )
1*
b1000 /

#630000
0!
0*

#635000
1!
b1000 )
1*
b1001 /

#640000
0!
0*

#645000
1!
b1001 )
1*
b1010 /

#650000
0!
0*

#655000
1!
b1010 )
1*
b1011 /

#660000
0!
0*

#665000
1!
b1011 )
1*
b1100 /

#670000
0!
0*

#675000
1!
b1100 )
1*
b1101 /

#680000
0!
0*

#685000
1!
b1101 )
1*
b1110 /

#690000
0!
0*

#695000
1!
b1110 )
1*
b1111 /
bx 3
bx 4
bx 5
bx 7
bx 8
b0 :

#700000
0!
0*

#705000
1!
0(
b1111 )
1*
b0 /
b0 3
b0 4
b0 5
b1111 7
bx1111 8
b0 9

#710000
0!
0*

#715000
1!
0&
b10000 )
1*

#720000
0!
0*

#725000
1!
1*

#730000
0!
0*

#735000
1!
1*

#740000
0!
0*

#745000
1!
b0 )
1*
b10000 ;
b1 <
b10000 =

#750000
0!
0*

#755000
1!
1#
1$
b1111110000000000 %
1*
1,
1-
b1111110000000000 .
b1111110000000000 0
b1 :

#760000
0!
0*

#765000
1!
0$
1(
1*
0-
b1 9
b1 :

#770000
0!
0*

#775000
1!
1*
b1 /

#780000
0!
0*

#785000
1!
1*
b10 /

#790000
0!
0*

#795000
1!
1*
b11 /

#800000
0!
0*

#805000
1!
b10000000000 %
1*
b10000000000 .
b100 /
b10000000000 0

#810000
0!
0*

#815000
1!
b1111110000000000 %
1*
b1111110000000000 .
b101 /
b1111100000000000 3
b100000000000 4
b11111111 5

#820000
0!
0*

#825000
1!
1*
b110 /

#830000
0!
0*

#835000
1!
1*
b111 /

#840000
0!
0*

#845000
1!
1*
b1000 /

#850000
0!
0*

#855000
1!
1*
b1001 /

#860000
0!
0*

#865000
1!
1*
b1010 /

#870000
0!
0*

#875000
1!
1*
b1011 /

#880000
0!
0*

#885000
1!
1*
b1100 /

#890000
0!
0*

#895000
1!
1*
b1101 /

#900000
0!
0*

#905000
1!
1*
b1110 /
b10 :

#910000
0!
0*

#915000
1!
0#
1*
0,
b0 /
b10 9
b10 :

#920000
0!
0*

#925000
1!
1*
b1 /

#930000
0!
0*

#935000
1!
1*
b10 /

#940000
0!
0*

#945000
1!
1*
b11 /

#950000
0!
0*

#955000
1!
1*
b100 /
b0 3
b0 4
b0 5

#960000
0!
0*

#965000
1!
1*
b101 /
b1111100000000000 3
b100000000000 4
b11111111 5

#970000
0!
0*

#975000
1!
1*
b110 /

#980000
0!
0*

#985000
1!
1*
b111 /

#990000
0!
0*

#995000
1!
1*
b1000 /

#1000000
0!
0*

#1005000
1!
1*
b1001 /

#1010000
0!
0*

#1015000
1!
1*
b1010 /

#1020000
0!
0*

#1025000
1!
1*
b1011 /

#1030000
0!
0*

#1035000
1!
1*
b1100 /

#1040000
0!
0*

#1045000
1!
1*
b1101 /

#1050000
0!
0*

#1055000
1!
1*
b1110 /

#1060000
0!
0*

#1065000
1!
1*
b1111 /
bx 3
bx 4
bx 5
bx 7
bx 8
b11 :

#1070000
0!
0*

#1075000
1!
1*
b0 /
12
b1111100000000000 3
b100000000000 4
b11111111 5
b101 7
bx0101 8
b11 9

#1080000
0!
0*

#1085000
1!
1*
b1 /
b0 1
02
b0 6
b101 8

#1090000
0!
0*

#1095000
1!
1*
b10 /
b1011101 1

#1100000
0!
0*

#1105000
1!
1*
b11 /
b10111010 1

#1110000
0!
0*

#1115000
1!
1*
b100 /
b100010111 1
b0 3
b0 4
b0 5
b1 6
b1111 7
b11111 8

#1120000
0!
0*

#1125000
1!
1*
b101 /
b1000010110 1
b1111100000000000 3
b100000000000 4
b11111111 5
b10 6
b101 7
b100101 8

#1130000
0!
0*

#1135000
1!
1*
b110 /
b1001110011 1

#1140000
0!
0*

#1145000
1!
1*
b111 /
b1011010000 1

#1150000
0!
0*

#1155000
1!
1*
b1000 /
b1100101101 1
b11 6
b110101 8

#1160000
0!
0*

#1165000
1!
1*
b1001 /
b1110001010 1

#1170000
0!
0*

#1175000
1!
1*
b1010 /
b1111100111 1

#1180000
0!
0*

#1185000
1!
1*
b1011 /
b10001000100 1
b100 6
b1000101 8

#1190000
0!
0*

#1195000
1!
1*
b1100 /
b10010100001 1

#1200000
0!
0*

#1205000
1!
1*
b1101 /
b10011111110 1

#1210000
0!
0*

#1215000
1!
1*
b1110 /
b10101011011 1
b101 6
b1010101 8

#1220000
0!
0*

#1225000
1!
1*
b1111 /
b10110111000 1
bx 3
bx 4
bx 5
bx 7
b101xxxx 8
b100 :

#1230000
0!
0*

#1235000
1!
1*
b0 /
bx 1
b1111100000000000 3
b100000000000 4
b11111111 5
bx 6
b101 7
bx0101 8
b100 9

#1240000
0!
0*

#1245000
1!
1&
1*
b1 /

#1250000
0!
0*

#1255000
1!
b1 )
1*
b10 /

#1260000
0!
0*

#1265000
1!
b10 )
1*
b11 /

#1270000
0!
0*

#1275000
1!
b11 )
1*
b100 /
b0 3
b0 4
b0 5
b1111 7
bx1111 8

#1280000
0!
0*

#1285000
1!
b100 )
1*
b101 /
b1111100000000000 3
b100000000000 4
b11111111 5
b101 7
bx0101 8

#1290000
0!
0*

#1295000
1!
b101 )
1*
b110 /

#1300000
0!
0*

#1305000
1!
b110 )
1*
b111 /

#1310000
0!
0*

#1315000
1!
b111 )
1*
b1000 /

#1320000
0!
0*

#1325000
1!
b1000 )
1*
b1001 /

#1330000
0!
0*

#1335000
1!
b1001 )
1*
b1010 /

#1340000
0!
0*

#1345000
1!
b1010 )
1*
b1011 /

#1350000
0!
0*

#1355000
1!
b1011 )
1*
b1100 /

#1360000
0!
0*

#1365000
1!
b1100 )
1*
b1101 /

#1370000
0!
0*

#1375000
1!
b1101 )
1*
b1110 /

#1380000
0!
0*

#1385000
1!
b1110 )
1*
b1111 /
bx 3
bx 4
bx 5
bx 7
bx 8
b0 :

#1390000
0!
0*

#1395000
1!
0(
b1111 )
1*
b0 /
b1111100000000000 3
b100000000000 4
b11111111 5
b101 7
bx0101 8
b0 9

#1400000
0!
0*

#1405000
1!
0&
b10000 )
1*

#1410000
0!
0*

#1415000
1!
1*

#1420000
0!
0*

#1425000
1!
1*

#1430000
0!
0*

#1435000
1!
b0 )
1*
b10000 >

#1440000
0!
0*

#1445000
1!
1#
1$
b1111111000000000 %
1*
1,
1-
b1111111000000000 .
b1111111000000000 0
b0 3
b0 4
b0 5
b1 :

#1450000
0!
0*

#1455000
1!
0$
1(
1*
0-
b1 9
b1 :

#1460000
0!
0*

#1465000
1!
1*
b1 /

#1470000
0!
0*

#1475000
1!
b1000000000 %
1*
b1000000000 .
b10 /
b1000000000 0

#1480000
0!
0*

#1485000
1!
b1111111000000000 %
1*
b1111111000000000 .
b11 /
b1111110000000000 3
b10000000000 4
b11111111 5

#1490000
0!
0*

#1495000
1!
1*
b100 /
b1111 7
bx1111 8

#1500000
0!
0*

#1505000
1!
1*
b101 /
b101 7
bx0101 8

#1510000
0!
0*

#1515000
1!
1*
b110 /

#1520000
0!
0*

#1525000
1!
1*
b111 /

#1530000
0!
0*

#1535000
1!
1*
b1000 /

#1540000
0!
0*

#1545000
1!
1*
b1001 /

#1550000
0!
0*

#1555000
1!
1*
b1010 /

#1560000
0!
0*

#1565000
1!
1*
b1011 /

#1570000
0!
0*

#1575000
1!
1*
b1100 /

#1580000
0!
0*

#1585000
1!
1*
b1101 /

#1590000
0!
0*

#1595000
1!
1*
b1110 /
b10 :

#1600000
0!
0*

#1605000
1!
0#
1*
0,
b0 /
b10 9
b10 :

#1610000
0!
0*

#1615000
1!
1*
b1 /

#1620000
0!
0*

#1625000
1!
1*
b10 /
b0 3
b0 4
b0 5

#1630000
0!
0*

#1635000
1!
1*
b11 /
b1111110000000000 3
b10000000000 4
b11111111 5

#1640000
0!
0*

#1645000
1!
1*
b100 /
b1111 7
bx1111 8

#1650000
0!
0*

#1655000
1!
1*
b101 /
b101 7
bx0101 8

#1660000
0!
0*

#1665000
1!
1*
b110 /

#1670000
0!
0*

#1675000
1!
1*
b111 /

#1680000
0!
0*

#1685000
1!
1*
b1000 /

#1690000
0!
0*

#1695000
1!
1*
b1001 /

#1700000
0!
0*

#1705000
1!
1*
b1010 /

#1710000
0!
0*

#1715000
1!
1*
b1011 /

#1720000
0!
0*

#1725000
1!
1*
b1100 /

#1730000
0!
0*

#1735000
1!
1*
b1101 /

#1740000
0!
0*

#1745000
1!
1*
b1110 /

#1750000
0!
0*

#1755000
1!
1*
b1111 /
bx 3
bx 4
bx 5
bx 7
bx 8
b11 :

#1760000
0!
0*

#1765000
1!
1*
b0 /
12
b1111110000000000 3
b10000000000 4
b11111111 5
b101 7
bx0101 8
b11 9

#1770000
0!
0*

#1775000
1!
1*
b1 /
b0 1
02
b0 6
b101 8

#1780000
0!
0*

#1785000
1!
1*
b10 /
b1011101 1
b0 3
b0 4
b0 5
b1111 7
b1111 8

#1790000
0!
0*

#1795000
1!
1*
b11 /
b101011100 1
b1111110000000000 3
b10000000000 4
b11111111 5
b1 6
b101 7
b10101 8

#1800000
0!
0*

#1805000
1!
1*
b100 /
b110111001 1

#1810000
0!
0*

#1815000
1!
1*
b101 /
b1000010110 1
b10 6
b100101 8

#1820000
0!
0*

#1825000
1!
1*
b110 /
b1001110011 1

#1830000
0!
0*

#1835000
1!
1*
b111 /
b1011010000 1

#1840000
0!
0*

#1845000
1!
1*
b1000 /
b1100101101 1
b11 6
b110101 8

#1850000
0!
0*

#1855000
1!
1*
b1001 /
b1110001010 1

#1860000
0!
0*

#1865000
1!
1*
b1010 /
b1111100111 1

#1870000
0!
0*

#1875000
1!
1*
b1011 /
b10001000100 1
b100 6
b1000101 8

#1880000
0!
0*

#1885000
1!
1*
b1100 /
b10010100001 1

#1890000
0!
0*

#1895000
1!
1*
b1101 /
b10011111110 1

#1900000
0!
0*

#1905000
1!
1*
b1110 /
b10101011011 1
b101 6
b1010101 8

#1910000
0!
0*

#1915000
1!
1*
b1111 /
b10110111000 1
bx 3
bx 4
bx 5
bx 7
b101xxxx 8
b100 :

#1920000
0!
0*

#1925000
1!
1*
b0 /
bx 1
b1111110000000000 3
b10000000000 4
b11111111 5
bx 6
b101 7
bx0101 8
b100 9

#1930000
0!
0*

#1935000
1!
1&
1*
b1 /

#1940000
0!
0*

#1945000
1!
b1 )
1*
b10 /
b0 3
b0 4
b0 5
b1111 7
bx1111 8

#1950000
0!
0*

#1955000
1!
b10 )
1*
b11 /
b1111110000000000 3
b10000000000 4
b11111111 5
b101 7
bx0101 8

#1960000
0!
0*

#1965000
1!
b11 )
1*
b100 /

#1970000
0!
0*

#1975000
1!
b100 )
1*
b101 /

#1980000
0!
0*

#1985000
1!
b101 )
1*
b110 /

#1990000
0!
0*

#1995000
1!
b110 )
1*
b111 /

#2000000
0!
0*

#2005000
1!
b111 )
1*
b1000 /

#2010000
0!
0*

#2015000
1!
b1000 )
1*
b1001 /

#2020000
0!
0*

#2025000
1!
b1001 )
1*
b1010 /

#2030000
0!
0*

#2035000
1!
b1010 )
1*
b1011 /

#2040000
0!
0*

#2045000
1!
b1011 )
1*
b1100 /

#2050000
0!
0*

#2055000
1!
b1100 )
1*
b1101 /

#2060000
0!
0*

#2065000
1!
b1101 )
1*
b1110 /

#2070000
0!
0*

#2075000
1!
b1110 )
1*
b1111 /
bx 3
bx 4
bx 5
bx 7
bx 8
b0 :

#2080000
0!
0*

#2085000
1!
0(
b1111 )
1*
b0 /
b1111110000000000 3
b10000000000 4
b11111111 5
b101 7
bx0101 8
b0 9

#2090000
0!
0*

#2095000
1!
0&
b10000 )
1*

#2100000
0!
0*

#2105000
1!
1*

#2110000
0!
0*

#2115000
1!
1*

#2120000
0!
0*

#2125000
1!
b0 )
1*
b10000 >

#2130000
0!
0*

#2135000
1!
1#
1$
1*
1,
1-
b1111111000000000 0
b0 3
b0 4
b0 5
b1 :

#2140000
0!
0*

#2145000
1!
0$
1(
1*
0-
b1 9
b1 :

#2150000
0!
0*

#2155000
1!
1*
b1 /

#2160000
0!
0*

#2165000
1!
1*
b10 /
b1111 7
bx1111 8

#2170000
0!
0*

#2175000
1!
1*
b11 /
b101 7
bx0101 8

#2180000
0!
0*

#2185000
1!
1*
b100 /

#2190000
0!
0*

#2195000
1!
1*
b101 /

#2200000
0!
0*

#2205000
1!
1*
b110 /

#2210000
0!
0*

#2215000
1!
1*
b111 /

#2220000
0!
0*

#2225000
1!
1*
b1000 /

#2230000
0!
0*

#2235000
1!
1*
b1001 /

#2240000
0!
0*

#2245000
1!
1*
b1010 /

#2250000
0!
0*

#2255000
1!
b1000000000 %
1*
b1000000000 .
b1011 /
b1000000000 0

#2260000
0!
0*

#2265000
1!
b1111111000000000 %
1*
b1111111000000000 .
b1100 /
b1111110000000000 3
b10000000000 4
b11111111 5

#2270000
0!
0*

#2275000
1!
1*
b1101 /

#2280000
0!
0*

#2285000
1!
1*
b1110 /
b10 :

#2290000
0!
0*

#2295000
1!
0#
1*
0,
b0 /
b10 9
b10 :

#2300000
0!
0*

#2305000
1!
1*
b1 /

#2310000
0!
0*

#2315000
1!
1*
b10 /
b1111 7
bx1111 8

#2320000
0!
0*

#2325000
1!
1*
b11 /
b101 7
bx0101 8

#2330000
0!
0*

#2335000
1!
1*
b100 /

#2340000
0!
0*

#2345000
1!
1*
b101 /

#2350000
0!
0*

#2355000
1!
1*
b110 /

#2360000
0!
0*

#2365000
1!
1*
b111 /

#2370000
0!
0*

#2375000
1!
1*
b1000 /

#2380000
0!
0*

#2385000
1!
1*
b1001 /

#2390000
0!
0*

#2395000
1!
1*
b1010 /

#2400000
0!
0*

#2405000
1!
1*
b1011 /
b0 3
b0 4
b0 5

#2410000
0!
0*

#2415000
1!
1*
b1100 /
b1111110000000000 3
b10000000000 4
b11111111 5

#2420000
0!
0*

#2425000
1!
1*
b1101 /

#2430000
0!
0*

#2435000
1!
1*
b1110 /

#2440000
0!
0*

#2445000
1!
1*
b1111 /
bx 3
bx 4
bx 5
bx 7
bx 8
b11 :

#2450000
0!
0*

#2455000
1!
1*
b0 /
12
b1111110000000000 3
b10000000000 4
b11111111 5
b101 7
bx0101 8
b11 9

#2460000
0!
0*

#2465000
1!
1*
b1 /
b0 1
02
b0 6
b101 8

#2470000
0!
0*

#2475000
1!
1*
b10 /
b1011101 1

#2480000
0!
0*

#2485000
1!
1*
b11 /
b10111010 1

#2490000
0!
0*

#2495000
1!
1*
b100 /
b100010111 1
b1 6
b10101 8

#2500000
0!
0*

#2505000
1!
1*
b101 /
b101110100 1

#2510000
0!
0*

#2515000
1!
1*
b110 /
b111010001 1

#2520000
0!
0*

#2525000
1!
1*
b111 /
b1000101110 1
b10 6
b100101 8

#2530000
0!
0*

#2535000
1!
1*
b1000 /
b1010001011 1

#2540000
0!
0*

#2545000
1!
1*
b1001 /
b1011101000 1

#2550000
0!
0*

#2555000
1!
1*
b1010 /
b1101000101 1
b11 6
b110101 8

#2560000
0!
0*

#2565000
1!
1*
b1011 /
b1110100010 1
b0 3
b0 4
b0 5
b1111 7
b111111 8

#2570000
0!
0*

#2575000
1!
1*
b1100 /
b10010100001 1
b1111110000000000 3
b10000000000 4
b11111111 5
b100 6
b101 7
b1000101 8

#2580000
0!
0*

#2585000
1!
1*
b1101 /
b10011111110 1

#2590000
0!
0*

#2595000
1!
1*
b1110 /
b10101011011 1
b101 6
b1010101 8

#2600000
0!
0*

#2605000
1!
1*
b1111 /
b10110111000 1
bx 3
bx 4
bx 5
bx 7
b101xxxx 8
b100 :

#2610000
0!
0*

#2615000
1!
1*
b0 /
bx 1
b1111110000000000 3
b10000000000 4
b11111111 5
bx 6
b101 7
bx0101 8
b100 9

#2620000
0!
0*

#2625000
1!
1&
1*
b1 /

#2630000
0!
0*

#2635000
1!
b1 )
1*
b10 /

#2640000
0!
0*

#2645000
1!
b10 )
1*
b11 /

#2650000
0!
0*

#2655000
1!
b11 )
1*
b100 /

#2660000
0!
0*

#2665000
1!
b100 )
1*
b101 /

#2670000
0!
0*

#2675000
1!
b101 )
1*
b110 /

#2680000
0!
0*

#2685000
1!
b110 )
1*
b111 /

#2690000
0!
0*

#2695000
1!
b111 )
1*
b1000 /

#2700000
0!
0*

#2705000
1!
b1000 )
1*
b1001 /

#2710000
0!
0*

#2715000
1!
b1001 )
1*
b1010 /

#2720000
0!
0*

#2725000
1!
b1010 )
1*
b1011 /
b0 3
b0 4
b0 5
b1111 7
bx1111 8

#2730000
0!
0*

#2735000
1!
b1011 )
1*
b1100 /
b1111110000000000 3
b10000000000 4
b11111111 5
b101 7
bx0101 8

#2740000
0!
0*

#2745000
1!
b1100 )
1*
b1101 /

#2750000
0!
0*

#2755000
1!
b1101 )
1*
b1110 /

#2760000
0!
0*

#2765000
1!
b1110 )
1*
b1111 /
bx 3
bx 4
bx 5
bx 7
bx 8
b0 :

#2770000
0!
0*

#2775000
1!
0(
b1111 )
1*
b0 /
b1111110000000000 3
b10000000000 4
b11111111 5
b101 7
bx0101 8
b0 9

#2780000
0!
0*

#2785000
1!
0&
b10000 )
1*

