softmax/sim/softmax_sim.vcd
$date
   Thu Mar 19 20:40:37 2026
$end

$version
  2025.2
  $dumpfile ("C:/Users/IsaiahK/Documents/School/FPGA/transformer/softmax/sim/softmax_sim.vcd") 
$end

$timescale
  1ps
$end

$scope module softmax_unit_tb $end
$var reg 1 ! clk $end
$var reg 1 " rst_n $end
$var reg 1 # in_valid $end
$var reg 1 $ in_first $end
$var reg 16 % in_data [15:0] $end
$var reg 1 & out_valid $end
$var reg 8 ' out_data [7:0] $end
$var reg 1 ( busy $end
$var reg 32 ) capture_idx [31:0] $end
$scope module dut $end
$var wire 1 * clk $end
$var wire 1 + rst_n $end
$var wire 1 , in_valid $end
$var wire 1 - in_first $end
$var wire 16 . in_data [15:0] $end
$var reg 1 & out_valid $end
$var reg 8 ' out_data [7:0] $end
$var reg 1 ( busy $end
$var reg 4 / cnt [3:0] $end
$var reg 16 0 running_max [15:0] $end
$var reg 12 1 sigma [11:0] $end
$var reg 16 2 shifted_val [15:0] $end
$var reg 16 3 neg_shifted [15:0] $end
$var reg 8 4 lut_addr_exp [7:0] $end
$var reg 4 5 sigma_idx [3:0] $end
$var reg 4 6 ex_idx [3:0] $end
$var reg 8 7 flat_idx [7:0] $end
$var reg 1 8 sigma_clear $end
$var reg 3 9 state $end
$var reg 3 : next_state $end
$upscope $end
$scope task send_row $end
$upscope $end
$scope function to_q8_8 $end
$upscope $end
$scope task print_summary $end
$upscope $end
$scope task print_all $end
$upscope $end
$scope task test_uniform $end
$var reg 32 ; i [31:0] $end
$var reg 32 < pass [31:0] $end
$upscope $end
$scope task test_one_hot $end
$var reg 32 = i [31:0] $end
$upscope $end
$scope task test_back_to_back $end
$var reg 32 > i [31:0] $end
$upscope $end
$upscope $end
$enddefinitions $end

#0
$dumpvars
0!
0"
0#
0$
b0 %
0&
b0 '
0(
b0 )
0*
0+
0,
0-
b0 .
b0 /
b1000000000000000 0
b0 1
bx 2
bx 3
bx 4
b0 5
bx 6
b0xxxx 7
08
b0 9
b0 :
b0 ;
b0 <
b0 =
b0 >
$end

#5000
1!
1*

#10000
0!
0*

#15000
1!
1*

#20000
0!
0*

#25000
1!
1*

#30000
0!
0*

#35000
1!
1*

#40000
0!
1"
0*
1+

#45000
1!
1*

#50000
0!
0*

#55000
1!
1*

#60000
0!
0*
b10000 ;

#65000
1!
1#
1$
1*
1,
1-
b0 0
b0 2
b0 3
b0 4
b1 :

#70000
0!
0*

#75000
1!
0$
1(
1*
0-
b1 9
b1 :

#80000
0!
0*

#85000
1!
1*
b1 /

#90000
0!
0*

#95000
1!
1*
b10 /

#100000
0!
0*

#105000
1!
1*
b11 /

#110000
0!
0*

#115000
1!
1*
b100 /

#120000
0!
0*

#125000
1!
1*
b101 /

#130000
0!
0*

#135000
1!
1*
b110 /

#140000
0!
0*

#145000
1!
1*
b111 /

#150000
0!
0*

#155000
1!
1*
b1000 /

#160000
0!
0*

#165000
1!
1*
b1001 /

#170000
0!
0*

#175000
1!
1*
b1010 /

#180000
0!
0*

#185000
1!
1*
b1011 /

#190000
0!
0*

#195000
1!
1*
b1100 /

#200000
0!
0*

#205000
1!
1*
b1101 /

#210000
0!
0*

#215000
1!
1*
b1110 /
b10 :

#220000
0!
0*

#225000
1!
0#
1*
0,
b0 /
b10 9
b10 :

#230000
0!
0*

#235000
1!
1*
b1 /

#240000
0!
0*

#245000
1!
1*
b10 /

#250000
0!
0*

#255000
1!
1*
b11 /

#260000
0!
0*

#265000
1!
1*
b100 /

#270000
0!
0*

#275000
1!
1*
b101 /

#280000
0!
0*

#285000
1!
1*
b110 /

#290000
0!
0*

#295000
1!
1*
b111 /

#300000
0!
0*

#305000
1!
1*
b1000 /

#310000
0!
0*

#315000
1!
1*
b1001 /

#320000
0!
0*

#325000
1!
1*
b1010 /

#330000
0!
0*

#335000
1!
1*
b1011 /

#340000
0!
0*

#345000
1!
1*
b1100 /

#350000
0!
0*

#355000
1!
1*
b1101 /

#360000
0!
0*

#365000
1!
1*
b1110 /

#370000
0!
0*

#375000
1!
1*
b1111 /
bx 2
bx 3
bx 4
b11 :

#380000
0!
0*

#385000
1!
1*
b0 /
b0 2
b0 3
b0 4
b1111 6
b1111 7
18
b11 9

#390000
0!
0*

#395000
1!
1*
b1 /
08

#400000
0!
0*

#405000
1!
1*
b10 /
b11111111 1

#410000
0!
0*

#415000
1!
1*
b11 /
b111111110 1
b1 5
b11111 7

#420000
0!
0*

#425000
1!
1*
b100 /
b1011111101 1
b10 5
b101111 7

#430000
0!
0*

#435000
1!
1*
b101 /
b1111111100 1
b11 5
b111111 7

#440000
0!
0*

#445000
1!
1*
b110 /
b10011111011 1
b100 5
b1001111 7

#450000
0!
0*

#455000
1!
1*
b111 /
b10111111010 1
b101 5
b1011111 7

#460000
0!
0*

#465000
1!
1*
b1000 /
b11011111001 1
b110 5
b1101111 7

#470000
0!
0*

#475000
1!
1*
b1001 /
b11111111000 1
b111 5
b1111111 7

#480000
0!
0*

#485000
1!
1*
b1010 /
b100011110111 1
b1000 5
b10001111 7

#490000
0!
0*

#495000
1!
1*
b1011 /
b100111110110 1
b1001 5
b10011111 7

#500000
0!
0*

#505000
1!
1*
b1100 /
b101011110101 1
b1010 5
b10101111 7

#510000
0!
0*

#515000
1!
1*
b1101 /
b101111110100 1
b1011 5
b10111111 7

#520000
0!
0*

#525000
1!
1*
b1110 /
b110011110011 1
b1100 5
b11001111 7

#530000
0!
0*

#535000
1!
1*
b1111 /
b110111110010 1
bx 2
bx 3
bx 4
b1101 5
bx 6
b1101xxxx 7
b100 :

#540000
0!
0*

#545000
1!
1*
b0 /
bx 1
b0 2
b0 3
b0 4
bx 5
b1111 6
bx1111 7
b100 9

#550000
0!
0*

#555000
1!
1&
bx '
1*
b1 /

#560000
0!
0*

#565000
1!
b1 )
1*
b10 /

#570000
0!
0*

#575000
1!
b10 )
1*
b11 /

#580000
0!
0*

#585000
1!
b11 )
1*
b100 /

#590000
0!
0*

#595000
1!
b100 )
1*
b101 /

#600000
0!
0*

#605000
1!
b101 )
1*
b110 /

#610000
0!
0*

#615000
1!
b110 )
1*
b111 /

#620000
0!
0*

#625000
1!
b111 )
1*
b1000 /

#630000
0!
0*

#635000
1!
b1000 )
1*
b1001 /

#640000
0!
0*

#645000
1!
b1001 )
1*
b1010 /

#650000
0!
0*

#655000
1!
b1010 )
1*
b1011 /

#660000
0!
0*

#665000
1!
b1011 )
1*
b1100 /

#670000
0!
0*

#675000
1!
b1100 )
1*
b1101 /

#680000
0!
0*

#685000
1!
b1101 )
1*
b1110 /

#690000
0!
0*

#695000
1!
b1110 )
1*
b1111 /
bx 2
bx 3
bx 4
bx 6
bx 7
b0 :

#700000
0!
0*

#705000
1!
0(
b1111 )
1*
b0 /
b0 2
b0 3
b0 4
b1111 6
bx1111 7
b0 9

#710000
0!
0*

#715000
1!
0&
b10000 )
1*

#720000
0!
0*

#725000
1!
1*

#730000
0!
0*

#735000
1!
1*

#740000
0!
0*

#745000
1!
b0 )
1*
b10000 ;
b1 <
b10000 =

#750000
0!
0*

#755000
1!
1#
1$
b1111110000000000 %
1*
1,
1-
b1111110000000000 .
b1111110000000000 0
b1 :

#760000
0!
0*

#765000
1!
0$
1(
1*
0-
b1 9
b1 :

#770000
0!
0*

#775000
1!
1*
b1 /

#780000
0!
0*

#785000
1!
1*
b10 /

#790000
0!
0*

#795000
1!
1*
b11 /

#800000
0!
0*

#805000
1!
b10000000000 %
1*
b10000000000 .
b100 /
b10000000000 0

#810000
0!
0*

#815000
1!
b1111110000000000 %
1*
b1111110000000000 .
b101 /
b1111100000000000 2
b100000000000 3
b11111111 4

#820000
0!
0*

#825000
1!
1*
b110 /

#830000
0!
0*

#835000
1!
1*
b111 /

#840000
0!
0*

#845000
1!
1*
b1000 /

#850000
0!
0*

#855000
1!
1*
b1001 /

#860000
0!
0*

#865000
1!
1*
b1010 /

#870000
0!
0*

#875000
1!
1*
b1011 /

#880000
0!
0*

#885000
1!
1*
b1100 /

#890000
0!
0*

#895000
1!
1*
b1101 /

#900000
0!
0*

#905000
1!
1*
b1110 /
b10 :

#910000
0!
0*

#915000
1!
0#
1*
0,
b0 /
b10 9
b10 :

#920000
0!
0*

#925000
1!
1*
b1 /

#930000
0!
0*

#935000
1!
1*
b10 /

#940000
0!
0*

#945000
1!
1*
b11 /

#950000
0!
0*

#955000
1!
1*
b100 /
b0 2
b0 3
b0 4

#960000
0!
0*

#965000
1!
1*
b101 /
b1111100000000000 2
b100000000000 3
b11111111 4

#970000
0!
0*

#975000
1!
1*
b110 /

#980000
0!
0*

#985000
1!
1*
b111 /

#990000
0!
0*

#995000
1!
1*
b1000 /
